Simulate Diagnostic Test Data — simulate_diagnostic_test_data • bayesDCA
…
    Examples

d <- simulate_diagnostic_test_data(B = 2,
                                   N = 1000,
                                   true_p = 0.2,
                                   true_se = 0.9,
                                   true_sp = 0.9)
#> Error in simulate_diagnostic_test_data(B = 2, N = 1000, true_p = 0.2,     true_se = 0.9, true_sp = 0.9): could not find function "simulate_diagnostic_test_data"
head(d)
#> $summary
#> $net_benefit
#> # A tibble: 41 × 9
#>    par_name   threshold model_or_test_name estimate    sd   `2.5%` `97.5%` n_eff
#>    <chr>          <dbl> <chr>                 <dbl> <dbl>    <dbl>   <dbl> <dbl>
#>  1 net_benef…     0     binary_test           0.471 0.274  0.0241    0.956 7405.
#>  2 net_benef…     0.025 binary_test           0.407 0.256  0.00466   0.894 6957.
#>  3 net_benef…     0.05  binary_test           0.357 0.244 -0.0107    0.841 6968.
#>  4 net_benef…     0.075 binary_test           0.328 0.235 -0.0242    0.807 6529.
#>  5 net_benef…     0.1   binary_test           0.309 0.233 -0.0383    0.794 6533.
#>  6 net_benef…     0.125 binary_test           0.296 0.233 -0.0492    0.783 6702.
#>  7 net_benef…     0.15  binary_test           0.278 0.230 -0.0713    0.752 6489.
#>  8 net_benef…     0.175 binary_test           0.273 0.234 -0.0862    0.763 6050.
#>  9 net_benef…     0.2   binary_test           0.261 0.236 -0.104     0.762 6630.
#> 10 net_benef…     0.225 binary_test           0.249 0.237 -0.125     0.739 6249.
#> # ℹ 31 more rows
#> # ℹ 1 more variable: Rhat <dbl>
#> 
#> $treat_all
#> # A tibble: 41 × 8
#>    par_name      threshold estimate    sd    `2.5%` `97.5%` n_eff  Rhat
#>    <chr>             <dbl>    <dbl> <dbl>     <dbl>   <dbl> <dbl> <dbl>
#>  1 treat_all[1]      0        0.497 0.283  0.0259     0.972 7657.  1.00
#>  2 treat_all[2]      0.025    0.484 0.290  0.000879   0.971 7657.  1.00
#>  3 treat_all[3]      0.05     0.470 0.298 -0.0254     0.971 7657.  1.00
#>  4 treat_all[4]      0.075    0.456 0.306 -0.0531     0.970 7657.  1.00
#>  5 treat_all[5]      0.1      0.441 0.314 -0.0824     0.969 7657.  1.00
#>  6 treat_all[6]      0.125    0.425 0.323 -0.113      0.968 7657.  1.00
#>  7 treat_all[7]      0.15     0.408 0.333 -0.146      0.967 7657.  1.00
#>  8 treat_all[8]      0.175    0.390 0.343 -0.181      0.966 7657.  1.00
#>  9 treat_all[9]      0.2      0.371 0.354 -0.218      0.965 7657.  1.00
#> 10 treat_all[10]     0.225    0.351 0.365 -0.257      0.964 7657.  1.00
#> # ℹ 31 more rows
#> 
#> $prevalence
#> # A tibble: 1 × 7
#>   par_name estimate    sd `2.5%` `97.5%` n_eff  Rhat
#>   <chr>       <dbl> <dbl>  <dbl>   <dbl> <dbl> <dbl>
#> 1 p           0.497 0.283 0.0259   0.972 7657.  1.00
#> 
#> $sensitivity
#> # A tibble: 41 × 9
#>    par_name threshold model_or_test_name estimate     sd `2.5%` `97.5%` n_eff
#>    <chr>        <dbl> <chr>                 <dbl>  <dbl>  <dbl>   <dbl> <dbl>
#>  1 Se[1,1]      0     binary_test           0.948 0.0926  0.672   1.00  5363.
#>  2 Se[2,1]      0.025 binary_test           0.841 0.152   0.448   0.998 7154.
#>  3 Se[3,1]      0.05  binary_test           0.745 0.180   0.328   0.984 7474.
#>  4 Se[4,1]      0.075 binary_test           0.700 0.187   0.287   0.974 7290.
#>  5 Se[5,1]      0.1   binary_test           0.673 0.190   0.253   0.960 8203.
#>  6 Se[6,1]      0.125 binary_test           0.657 0.196   0.240   0.959 6891.
#>  7 Se[7,1]      0.15  binary_test           0.639 0.195   0.215   0.950 9212.
#>  8 Se[8,1]      0.175 binary_test           0.634 0.195   0.223   0.946 6845.
#>  9 Se[9,1]      0.2   binary_test           0.626 0.196   0.209   0.946 8515.
#> 10 Se[10,1]     0.225 binary_test           0.620 0.196   0.204   0.939 6668.
#> # ℹ 31 more rows
#> # ℹ 1 more variable: Rhat <dbl>
#> 
#> $specificity
#> # A tibble: 41 × 9
#>    par_name threshold model_or_test_name estimate     sd    `2.5%` `97.5%` n_eff
#>    <chr>        <dbl> <chr>                 <dbl>  <dbl>     <dbl>   <dbl> <dbl>
#>  1 Sp[1,1]      0     binary_test          0.0477 0.0852   3.68e-8   0.306 5598.
#>  2 Sp[2,1]      0.025 binary_test          0.316  0.188    3.85e-2   0.720 7895.
#>  3 Sp[3,1]      0.05  binary_test          0.453  0.208    8.61e-2   0.863 6999.
#>  4 Sp[4,1]      0.075 binary_test          0.512  0.203    1.36e-1   0.879 6196.
#>  5 Sp[5,1]      0.1   binary_test          0.546  0.204    1.49e-1   0.904 8932.
#>  6 Sp[6,1]      0.125 binary_test          0.567  0.200    1.77e-1   0.913 6294.
#>  7 Sp[7,1]      0.15  binary_test          0.579  0.201    1.78e-1   0.918 9230.
#>  8 Sp[8,1]      0.175 binary_test          0.585  0.204    1.81e-1   0.924 7797.
#>  9 Sp[9,1]      0.2   binary_test          0.594  0.198    1.90e-1   0.924 7120.
#> 10 Sp[10,1]     0.225 binary_test          0.599  0.204    1.85e-1   0.935 7813.
#> # ℹ 31 more rows
#> # ℹ 1 more variable: Rhat <dbl>
…
#> 489        0           0
#> 490        0           0
#> 491        0           0
#> 492        0           0
#> 493        1           1
#> 494        0           0
#> 495        0           0
#> 496        0           0
#> 497        0           0
#> 498        0           0
#> 499        0           0
#> 500        0           0
#> 
#> $threshold_data
#> # A tibble: 41 × 6
#>    model_or_test     N     d    tp    tn thresholds
#>    <chr>         <dbl> <dbl> <dbl> <dbl>      <dbl>
#>  1 binary_test       0     0     0     0      0    
#>  2 binary_test       0     0     0     0      0.025
#>  3 binary_test       0     0     0     0      0.05 
#>  4 binary_test       0     0     0     0      0.075
#>  5 binary_test       0     0     0     0      0.1  
#>  6 binary_test       0     0     0     0      0.125
#>  7 binary_test       0     0     0     0      0.15 
#>  8 binary_test       0     0     0     0      0.175
#>  9 binary_test       0     0     0     0      0.2  
#> 10 binary_test       0     0     0     0      0.225
#> # ℹ 31 more rows
…
